{
	"Categories": [
		{
			"Category": "Section A"
		},

		{
			"Category": "Section B"
		},
		{
			"Category": "Section C"
		},
		{
			"Category": "Section D"
		},
		{
			"Category": "Section E"
		},
		{
			"Category": "Section F"
		},
		{
			"Category": "Section G"
		},
		{
			"Category": "Section H"
		},
		{
			"Category": "Section AA"
		}
	],
	"size": 200
}